<?xml version="1.0" encoding="utf-8"?>
<!-- Generator: Adobe Illustrator 21.1.0, SVG Export Plug-In . SVG Version: 6.00 Build 0)  -->
<svg version="1.1" id="Layer_1" xmlns="http://www.w3.org/2000/svg" xmlns:xlink="http://www.w3.org/1999/xlink" x="0px" y="0px"
	 viewBox="0 0 353.4 70" style="enable-background:new 0 0 353.4 70;" xml:space="preserve">
<style type="text/css">
	.st0{fill:#FFFFFF;}
	.st1{fill:#FFDE00;}
	.st2{fill:#F0403D;}
	.st3{fill:#0099A6;}
</style>
<g>
	<path class="st0" d="M113.6,51.1c0,1.6-0.1,2.9-0.4,3.9c-0.3,1-0.7,1.8-1.3,2.5c-0.6,0.7-1.5,1.2-2.7,1.6c-1.1,0.4-2.6,0.8-4.4,1.1
		l3.6,8c3-0.5,5.6-1.2,7.6-2c2-0.8,3.7-2,4.9-3.3c1.2-1.4,2-3.1,2.5-5.1c0.5-2,0.7-4.4,0.7-7.2V15.5h-10.6V51.1z"/>
	<path class="st0" d="M153.9,39.4c-0.3,1.3-0.8,2.4-1.4,3.4c-0.6,1-1.4,1.8-2.3,2.4c-0.9,0.6-2.1,0.9-3.3,0.9c-2.6,0-4.4-1-5.6-3
		c-1.2-2-1.8-4.5-1.8-7.6c0-3.1,0.6-5.6,1.8-7.7c1.2-2,3.1-3,5.6-3c2.6,0,4.4,1,5.7,3.1c1.2,2.1,1.8,4.6,1.8,7.6
		C154.3,36.8,154.2,38.2,153.9,39.4 M159.7,20.5c-1.6-1.8-3.5-3.3-5.7-4.3c-2.2-1-4.6-1.5-7.2-1.5c-2.6,0-5,0.5-7.2,1.5
		c-2.2,1-4.1,2.4-5.7,4.3c-1.6,1.8-2.8,4-3.8,6.6c-0.9,2.6-1.4,5.4-1.4,8.4c0,3,0.5,5.8,1.4,8.4c0.9,2.6,2.2,4.7,3.8,6.6
		c1.6,1.8,3.5,3.2,5.7,4.2c2.2,1,4.6,1.5,7.2,1.5c2.6,0,5-0.5,7.2-1.5c2.2-1,4.1-2.4,5.7-4.2c1.6-1.8,2.8-4,3.8-6.6
		c0.9-2.6,1.4-5.4,1.4-8.4c0-3-0.5-5.8-1.4-8.4C162.6,24.5,161.3,22.3,159.7,20.5"/>
	<path class="st0" d="M179.7,0l-10.6,5.2v50.1h10.6v-2.3c1,0.9,2.2,1.6,3.6,2.2c1.4,0.6,3,0.9,4.8,0.9c2.5,0,4.7-0.5,6.6-1.5
		c1.9-1,3.5-2.4,4.8-4.2c1.3-1.8,2.3-3.9,3-6.4c0.7-2.5,1-5.2,1-8.2c0-3.7-0.4-6.9-1.2-9.6c-0.8-2.7-1.9-4.9-3.3-6.6
		c-1.4-1.7-3.1-3-4.9-3.8c-1.9-0.8-3.9-1.2-6-1.2c-1.5,0-2.8,0.2-3.9,0.6v9.5c0.6-0.1,1.3-0.2,2-0.2c2.1,0,3.7,0.9,5,2.7
		c1.2,1.8,1.9,4.8,1.9,8.9c0,6.8-2.1,10.2-6.2,10.2c-3,0-5.4-1.1-7.1-3.4V0z"/>
	<polygon class="st0" points="208.4,5.2 208.4,55.3 219,55.3 219,0 	"/>
	<path class="st0" d="M248.7,39.4c-0.3,1.3-0.8,2.4-1.4,3.4c-0.6,1-1.4,1.8-2.3,2.4c-0.9,0.6-2.1,0.9-3.3,0.9c-2.6,0-4.4-1-5.6-3
		c-1.2-2-1.8-4.5-1.8-7.6c0-3.1,0.6-5.6,1.8-7.7c1.2-2,3.1-3,5.6-3c2.6,0,4.4,1,5.7,3.1c1.2,2.1,1.8,4.6,1.8,7.6
		C249.1,36.8,249,38.2,248.7,39.4 M254.6,20.5c-1.6-1.8-3.5-3.3-5.7-4.3c-2.2-1-4.6-1.5-7.2-1.5c-2.6,0-5,0.5-7.2,1.5
		c-2.2,1-4.1,2.4-5.7,4.3c-1.6,1.8-2.8,4-3.8,6.6c-0.9,2.6-1.4,5.4-1.4,8.4c0,3,0.5,5.8,1.4,8.4c0.9,2.6,2.2,4.7,3.8,6.6
		c1.6,1.8,3.5,3.2,5.7,4.2c2.2,1,4.6,1.5,7.2,1.5c2.6,0,5-0.5,7.2-1.5c2.2-1,4.1-2.4,5.7-4.2c1.6-1.8,2.8-4,3.8-6.6
		c0.9-2.6,1.4-5.4,1.4-8.4c0-3-0.5-5.8-1.4-8.4C257.4,24.5,256.2,22.3,254.6,20.5"/>
	<path class="st0" d="M285.8,52.9c0,0.6-0.1,2.2-0.1,2.5"/>
	<path class="st0" d="M285.8,27.9c-1.7-2.3-4-3.4-7.1-3.4c-4.2,0-6.2,3.4-6.2,10.2c0,4.1,0.6,7.1,1.9,8.9c1.2,1.8,2.9,2.7,5,2.7
		c0.7,0,1.3-0.1,1.8-0.2v9.2c-1.2,0.5-2.1,0.8-3.8,0.8c-2.1,0-4.1-0.4-6-1.2s-3.5-2.1-4.9-3.8c-1.4-1.7-2.5-3.9-3.3-6.6
		c-0.8-2.7-1.2-5.9-1.2-9.6c0-3,0.3-5.7,1-8.2c0.7-2.5,1.7-4.6,3-6.4c1.3-1.8,2.9-3.2,4.8-4.2c1.9-1,4.1-1.5,6.6-1.5
		c1.8,0,3.4,0.3,4.8,0.9c1.4,0.6,2.6,1.3,3.6,2.2v-2.3h10.6v33.1c0,3.3-0.2,6.2-0.7,8.7c-0.5,2.5-1.4,4.6-2.6,6.4
		c-1.3,1.7-3,3.2-5.2,4.2c-2.2,1.1-5.1,1.8-8.6,2.1l-3.7-7.9c2-0.3,3.7-0.7,5-1.1c1.3-0.4,2.4-1,3.2-1.7c0.8-0.7,1.4-1.6,1.7-2.7
		c0.1-0.4,0.2-0.9,0.3-1.3L285.8,27.9z"/>
	<rect x="303.3" y="15.5" class="st0" width="10.6" height="39.9"/>
	<path class="st0" d="M346.7,41c-1.4,1.6-2.8,2.9-4.2,3.8c-1.4,0.9-3.2,1.3-5.2,1.3c-2.5,0-4.5-1-6-2.9c-1.5-1.9-2.2-4.5-2.2-7.7
		c0-3.3,0.7-5.9,2.2-7.8c1.5-1.9,3.5-2.9,6-2.9c2.1,0,3.9,0.5,5.3,1.6c1.4,1.1,2.7,2.4,3.8,4.1l6.9-7c-1.7-2.6-3.8-4.7-6.3-6.3
		c-2.5-1.6-5.7-2.5-9.5-2.5c-2.8,0-5.3,0.5-7.7,1.5c-2.3,1-4.3,2.4-6,4.3c-1.7,1.8-3,4-4,6.6c-1,2.6-1.4,5.4-1.4,8.4
		c0,3,0.5,5.8,1.4,8.4c1,2.6,2.3,4.7,4,6.6c1.7,1.8,3.7,3.2,5.9,4.3c2.3,1,4.7,1.5,7.3,1.5c2,0,3.8-0.2,5.4-0.6
		c1.6-0.4,3-1.1,4.3-1.9c1.3-0.8,2.5-1.7,3.6-2.8c1.1-1.1,2.1-2.3,3.1-3.6L346.7,41z"/>
	<path class="st0" d="M14,29.9c-1.1,1.1-2,2.2-2.6,3.1c-0.6,0.9-0.8,1.8-0.9,2.8c0,0.9,0.2,2,0.8,3.1c0.5,1.1,1.3,2.5,2.4,4.1
		l-8.6,3.2c-1.9-2.6-3.2-4.9-4.1-7C0.3,37-0.1,35,0,33.2c0.1-1.9,0.8-3.7,1.9-5.5c1.1-1.8,2.7-3.7,4.7-5.7L28.5,0.1l7.7,7.7L14,29.9
		z"/>
	<path class="st1" d="M71.2,39.4c1.1-1.1,2-2.2,2.6-3.1c0.6-0.9,0.8-1.8,0.9-2.8s-0.2-2-0.8-3.1c-0.5-1.1-1.3-2.5-2.4-4.1l8.6-3.2
		c1.9,2.6,3.2,4.9,4.1,7c0.9,2.1,1.2,4.1,1.1,6c-0.1,1.9-0.8,3.7-1.9,5.5c-1.1,1.8-2.7,3.7-4.7,5.7L56.7,69.1L49,61.4L71.2,39.4z"/>
	<path class="st2" d="M33.7,49.4c-1.1,1.1-2.2,2-3.1,2.5c-0.9,0.5-1.9,0.8-2.8,0.9c-0.9,0-2-0.2-3.1-0.8c-1.1-0.5-2.5-1.3-4.1-2.4
		l-3.2,8.5c2.6,1.8,4.9,3.2,7,4.1c2.1,0.9,4.1,1.2,6,1.1c1.9-0.1,3.7-0.8,5.6-1.9c1.8-1.1,3.7-2.7,5.8-4.7L63.7,35L56,27.3
		L33.7,49.4z"/>
	<path class="st3" d="M51.7,19.7c1.1-1.1,2.2-2,3.1-2.5c0.9-0.6,1.9-0.8,2.8-0.9c0.9,0,2,0.2,3.1,0.8c1.1,0.5,2.5,1.3,4.1,2.4
		l3.2-8.5c-2.6-1.8-4.9-3.2-7-4.1c-2.1-0.9-4.1-1.2-6-1.1c-1.9,0.1-3.7,0.8-5.6,1.9c-1.8,1.1-3.7,2.7-5.8,4.7L21.8,34.1l7.7,7.7
		L51.7,19.7z"/>
</g>
</svg>
